%YAML 1.1
%TAG !u! tag:unity3d.com,2011:
--- !u!114 &11400000
MonoBehaviour:
  m_ObjectHideFlags: 0
  m_CorrespondingSourceObject: {fileID: 0}
  m_PrefabInstance: {fileID: 0}
  m_PrefabAsset: {fileID: 0}
  m_GameObject: {fileID: 0}
  m_Enabled: 1
  m_EditorHideFlags: 0
  m_Script: {fileID: 11500000, guid: a1d3edcb33f33ae4782ad842e3d48d42, type: 3}
  m_Name: Bubble512Data
  m_EditorClassIdentifier: 
  value: 9
  weight: 0.003125
  material: {fileID: 2100000, guid: 1dd1720f421c1d3418395806b3d433bb, type: 2}
