%YAML 1.1
%TAG !u! tag:unity3d.com,2011:
--- !u!114 &11400000
MonoBehaviour:
  m_ObjectHideFlags: 0
  m_CorrespondingSourceObject: {fileID: 0}
  m_PrefabInstance: {fileID: 0}
  m_PrefabAsset: {fileID: 0}
  m_GameObject: {fileID: 0}
  m_Enabled: 1
  m_EditorHideFlags: 0
  m_Script: {fileID: 11500000, guid: a1d3edcb33f33ae4782ad842e3d48d42, type: 3}
  m_Name: Bubble128Data
  m_EditorClassIdentifier: 
  value: 7
  weight: 0.0125
  material: {fileID: 2100000, guid: 8a771a56708c9584b8f929dad71f5302, type: 2}
